{
    "entryFile": "src/index.ts",
    "noImplicitAdditionalProperties": "throw-on-extras",
    "spec": {
      "outputDirectory": "public",
      "specVersion": 3,
      "description": "Doc: example REST API description",
      "tags":  [
        {
          "name": "pingpong",
          "description": "Doc: endpoints about pingpong",
          "externalDocs": {
            "description": "Find out more about pingpong",
            "url": "http://swagger.io"
          }
        }
      ]
    },
    "routes": {
      "routesDir": "build"
    }
}